<?xml version="1.0" encoding="UTF-8" standalone="no"?>
<svg
   xmlns:dc="http://purl.org/dc/elements/1.1/"
   xmlns:cc="http://creativecommons.org/ns#"
   xmlns:rdf="http://www.w3.org/1999/02/22-rdf-syntax-ns#"
   xmlns:svg="http://www.w3.org/2000/svg"
   xmlns="http://www.w3.org/2000/svg"
   width="210mm"
   height="297mm"
   viewBox="0 0 210 297"
   version="1.1"
   id="svg8">
  <defs
     id="defs2" />
  <metadata
     id="metadata5">
    <rdf:RDF>
      <cc:Work
         rdf:about="">
        <dc:format>image/svg+xml</dc:format>
        <dc:type
           rdf:resource="http://purl.org/dc/dcmitype/StillImage" />
        <dc:title></dc:title>
      </cc:Work>
    </rdf:RDF>
  </metadata>
  <g
     id="layer1">
    <path
       style="fill:none;stroke:#818300;stroke-width:0.264583;stroke-linejoin:bevel;stroke-miterlimit:4;stroke-dasharray:none;stroke-opacity:1"
       id="path835"
       d="m 59.52368,145.7837 -9.916075,5.72505 -9.916075,-5.72505 0,-11.45009 9.916075,-5.72505 9.916075,5.72505 z" />
    <path
       style="fill:none;stroke:#818300;stroke-width:0.264583;stroke-linejoin:bevel;stroke-miterlimit:4;stroke-dasharray:none;stroke-opacity:1"
       id="path837"
       d="m 79.355833,145.7837 -9.916075,5.72505 -9.916075,-5.72505 0,-11.4501 9.916075,-5.72505 9.916075,5.72505 z" />
    <path
       style="fill:none;stroke:#818300;stroke-width:0.264583;stroke-linejoin:bevel;stroke-miterlimit:4;stroke-dasharray:none;stroke-opacity:1"
       id="path839"
       d="m 69.439757,162.95884 -9.916075,5.72505 -9.916075,-5.72505 0,-11.45009 9.916075,-5.72505 9.916075,5.72505 z" />
    <path
       style="fill:none;stroke:#818300;stroke-width:0.264583;stroke-linejoin:bevel;stroke-miterlimit:4;stroke-dasharray:none;stroke-opacity:1"
       id="path841"
       d="m 89.27191,162.95884 -9.916075,5.72505 -9.916075,-5.72505 0,-11.45009 9.916075,-5.72505 9.916075,5.72505 z" />
    <path
       style="fill:none;stroke:#818300;stroke-width:0.264583;stroke-linejoin:bevel;stroke-miterlimit:4;stroke-dasharray:none;stroke-opacity:1"
       id="path843"
       d="m 109.10406,162.95884 -9.916072,5.72505 -9.916075,-5.72505 0,-11.45009 9.916075,-5.72505 9.916072,5.72505 z" />
    <path
       style="fill:none;stroke:#818300;stroke-width:0.264583;stroke-linejoin:bevel;stroke-miterlimit:4;stroke-dasharray:none;stroke-opacity:1"
       id="path845"
       d="m 99.187987,180.13398 -9.916075,5.72505 -9.916075,-5.72505 0,-11.45009 9.916075,-5.72505 9.916075,5.72505 z" />
    <path
       style="fill:none;stroke:#818300;stroke-width:0.264583;stroke-linejoin:bevel;stroke-miterlimit:4;stroke-dasharray:none;stroke-opacity:1"
       id="path847"
       d="m 59.523684,180.13398 -9.916075,5.72505 -9.916075,-5.72505 0,-11.45009 9.916075,-5.72505 9.916075,5.72505 z" />
    <path
       style="fill:none;stroke:#818300;stroke-width:0.264583;stroke-linejoin:bevel;stroke-miterlimit:4;stroke-dasharray:none;stroke-opacity:1"
       id="path849"
       d="m 79.355833,180.13398 -9.916075,5.72505 -9.916075,-5.72505 0,-11.45009 9.916075,-5.72505 9.916075,5.72505 z" />
    <path
       style="fill:none;stroke:#818300;stroke-width:0.264583;stroke-linejoin:bevel;stroke-miterlimit:4;stroke-dasharray:none;stroke-opacity:1"
       id="path853"
       d="m 29.775456,162.95884 -9.916075,5.72505 -9.9160753,-5.72505 10e-8,-11.45009 9.9160752,-5.72505 9.916075,5.72505 z" />
    <path
       style="fill:none;stroke:#818300;stroke-width:0.264583;stroke-linejoin:bevel;stroke-miterlimit:4;stroke-dasharray:none;stroke-opacity:1"
       id="path855"
       d="m 49.607603,162.95884 -9.916075,5.72505 -9.916075,-5.72505 0,-11.45009 9.916075,-5.72505 9.916075,5.72505 z" />
    <path
       style="fill:none;stroke:#818300;stroke-width:0.264583;stroke-linejoin:bevel;stroke-miterlimit:4;stroke-dasharray:none;stroke-opacity:1"
       id="path857"
       d="m 39.691528,180.13398 -9.916074,5.72505 -9.916075,-5.72505 0,-11.45009 9.916075,-5.72505 9.916075,5.72505 z" />
    <path
       style="fill:none;stroke:#818300;stroke-width:0.264583;stroke-linejoin:bevel;stroke-miterlimit:4;stroke-dasharray:none;stroke-opacity:1"
       id="path859"
       d="m 89.27191,128.60855 -9.916075,5.72505 -9.916075,-5.72505 0,-11.4501 9.916075,-5.72505 9.916075,5.72505 z" />
    <path
       style="fill:none;stroke:#818300;stroke-width:0.264583;stroke-linejoin:bevel;stroke-miterlimit:4;stroke-dasharray:none;stroke-opacity:1"
       id="path861"
       d="m 109.10406,128.60855 -9.916079,5.72505 -9.916075,-5.72505 0,-11.4501 9.916075,-5.72505 9.916079,5.72505 z" />
    <path
       style="fill:none;stroke:#818300;stroke-width:0.264583;stroke-linejoin:bevel;stroke-miterlimit:4;stroke-dasharray:none;stroke-opacity:1"
       id="path863"
       d="m 99.187979,145.78369 -9.916075,5.72505 -9.916075,-5.72505 0,-11.4501 9.916075,-5.72505 9.916075,5.72505 z" />
    <path
       style="fill:none;stroke:#818300;stroke-width:0.264583;stroke-linejoin:bevel;stroke-miterlimit:4;stroke-dasharray:none;stroke-opacity:1"
       id="path865"
       d="m 29.775461,128.60856 -9.916075,5.72504 -9.9160745,-5.72504 0,-11.4501 9.9160745,-5.72505 9.916075,5.72505 z" />
    <path
       style="fill:none;stroke:#818300;stroke-width:0.264583;stroke-linejoin:bevel;stroke-miterlimit:4;stroke-dasharray:none;stroke-opacity:1"
       id="path867"
       d="m 49.607607,128.60856 -9.916075,5.72504 -9.916075,-5.72504 0,-11.4501 9.916075,-5.72505 9.916075,5.72505 z" />
    <path
       style="fill:none;stroke:#818300;stroke-width:0.264583;stroke-linejoin:bevel;stroke-miterlimit:4;stroke-dasharray:none;stroke-opacity:1"
       id="path869"
       d="m 39.69153,145.7837 -9.916075,5.72505 -9.916075,-5.72505 10e-7,-11.45009 9.916075,-5.72505 9.916074,5.72505 z" />
    <path
       style="fill:none;stroke:#818300;stroke-width:0.264583;stroke-linejoin:bevel;stroke-miterlimit:4;stroke-dasharray:none;stroke-opacity:1"
       id="path1012"
       d="m 59.523684,111.43341 -9.916075,5.72505 -9.916075,-5.72505 0,-11.4501 9.916075,-5.725048 9.916075,5.725048 z" />
    <path
       style="fill:none;stroke:#818300;stroke-width:0.264583;stroke-linejoin:bevel;stroke-miterlimit:4;stroke-dasharray:none;stroke-opacity:1"
       id="path1014"
       d="m 79.355833,111.43341 -9.916075,5.72505 -9.916075,-5.72505 0,-11.4501 9.916075,-5.725048 9.916075,5.725048 z" />
    <path
       style="fill:none;stroke:#818300;stroke-width:0.264583;stroke-linejoin:bevel;stroke-miterlimit:4;stroke-dasharray:none;stroke-opacity:1"
       id="path1016"
       d="m 69.43976,128.60855 -9.916075,5.72505 -9.916075,-5.72505 10e-7,-11.4501 9.916075,-5.72505 9.916074,5.72505 z" />
    <path
       style="fill:none;stroke:#818300;stroke-width:0.264583;stroke-linejoin:bevel;stroke-miterlimit:4;stroke-dasharray:none;stroke-opacity:1"
       id="path1018"
       d="m 89.27191,94.258252 -9.916075,5.725048 -9.916075,-5.725048 0,-11.450097 9.916075,-5.725049 9.916075,5.725049 z" />
    <path
       style="fill:none;stroke:#818300;stroke-width:0.264583;stroke-linejoin:bevel;stroke-miterlimit:4;stroke-dasharray:none;stroke-opacity:1"
       id="path1020"
       d="m 109.10406,94.258252 -9.916079,5.725048 -9.916075,-5.725048 0,-11.450097 9.916075,-5.725049 9.916079,5.725049 z" />
    <path
       style="fill:none;stroke:#818300;stroke-width:0.264583;stroke-linejoin:bevel;stroke-miterlimit:4;stroke-dasharray:none;stroke-opacity:1"
       id="path1022"
       d="m 99.187979,111.43339 -9.916075,5.72505 -9.916075,-5.72505 0,-11.450095 9.916075,-5.725049 9.916075,5.725049 z" />
    <path
       style="fill:none;stroke:#818300;stroke-width:0.264583;stroke-linejoin:bevel;stroke-miterlimit:4;stroke-dasharray:none;stroke-opacity:1"
       id="path1024"
       d="m 29.775465,94.258259 -9.916075,5.725049 -9.9160747,-5.725049 0,-11.450097 9.9160747,-5.725048 9.916075,5.725048 z" />
    <path
       style="fill:none;stroke:#818300;stroke-width:0.264583;stroke-linejoin:bevel;stroke-miterlimit:4;stroke-dasharray:none;stroke-opacity:1"
       id="path1026"
       d="m 49.607611,94.258259 -9.916075,5.725049 -9.916075,-5.725049 0,-11.450097 9.916075,-5.725048 9.916075,5.725048 z" />
    <path
       style="fill:none;stroke:#818300;stroke-width:0.264583;stroke-linejoin:bevel;stroke-miterlimit:4;stroke-dasharray:none;stroke-opacity:1"
       id="path1028"
       d="m 39.691534,111.43341 -9.916075,5.72505 -9.916075,-5.72505 0,-11.4501 9.916075,-5.725048 9.916075,5.725048 z" />
    <path
       style="fill:none;stroke:#818300;stroke-width:0.264583;stroke-linejoin:bevel;stroke-miterlimit:4;stroke-dasharray:none;stroke-opacity:1"
       id="path1030"
       d="m 69.43976,94.258252 -9.916075,5.725048 -9.916075,-5.725048 10e-7,-11.450097 9.916075,-5.725049 9.916074,5.725049 z" />
    <path
       style="fill:none;stroke:#818300;stroke-width:0.264583;stroke-linejoin:bevel;stroke-miterlimit:4;stroke-dasharray:none;stroke-opacity:1"
       id="path1032"
       d="m 128.93622,162.95885 -9.91608,5.72505 -9.91607,-5.72505 0,-11.4501 9.91607,-5.72505 9.91608,5.72505 z" />
    <path
       style="fill:none;stroke:#818300;stroke-width:0.264583;stroke-linejoin:bevel;stroke-miterlimit:4;stroke-dasharray:none;stroke-opacity:1"
       id="path1034"
       d="m 119.02013,180.13399 -9.91607,5.72505 -9.916078,-5.72505 0,-11.4501 9.916078,-5.72505 9.91607,5.72505 z" />
    <path
       style="fill:none;stroke:#818300;stroke-width:0.264583;stroke-linejoin:bevel;stroke-miterlimit:4;stroke-dasharray:none;stroke-opacity:1"
       id="path1036"
       d="m 128.9362,128.60855 -9.91607,5.72505 -9.91608,-5.72505 0,-11.45009 9.91608,-5.72505 9.91607,5.72505 z" />
    <path
       style="fill:none;stroke:#818300;stroke-width:0.264583;stroke-linejoin:bevel;stroke-miterlimit:4;stroke-dasharray:none;stroke-opacity:1"
       id="path1038"
       d="m 119.02013,145.78369 -9.91607,5.72505 -9.916078,-5.72505 0,-11.45009 9.916078,-5.72505 9.91607,5.72505 z" />
    <path
       style="fill:none;stroke:#818300;stroke-width:0.264583;stroke-linejoin:bevel;stroke-miterlimit:4;stroke-dasharray:none;stroke-opacity:1"
       id="path1040"
       d="m 128.9362,94.258259 -9.91607,5.725049 -9.91608,-5.725049 0,-11.450097 9.91608,-5.725048 9.91607,5.725048 z" />
    <path
       style="fill:none;stroke:#818300;stroke-width:0.264583;stroke-linejoin:bevel;stroke-miterlimit:4;stroke-dasharray:none;stroke-opacity:1"
       id="path1042"
       d="m 119.02013,111.4334 -9.91607,5.72505 -9.916078,-5.72505 0,-11.450097 9.916078,-5.725049 9.91607,5.725049 z" />
  </g>
</svg>
